[gd_scene load_steps=5 format=3 uid="uid://dceb62ui361b7"]

[ext_resource type="Script" path="res://playchar/player.gd" id="1_mtd1x"]

[sub_resource type="CapsuleShape3D" id="CapsuleShape3D_v3dy3"]
radius = 0.25
height = 1.7

[sub_resource type="CapsuleMesh" id="CapsuleMesh_hh2as"]
radius = 0.399
height = 1.7

[sub_resource type="StyleBoxFlat" id="StyleBoxFlat_gwtlw"]
bg_color = Color(1, 1, 1, 1)

[node name="Player" type="CharacterBody3D"]
floor_constant_speed = true
floor_block_on_wall = false
floor_max_angle = 1.0472
script = ExtResource("1_mtd1x")
move_speed = 5.0

[node name="CollisionShape3D" type="CollisionShape3D" parent="."]
transform = Transform3D(1, 0, 0, 0, 1, 0, 0, 0, 1, 0, 0.857505, 0)
shape = SubResource("CapsuleShape3D_v3dy3")

[node name="MeshInstance3D" type="MeshInstance3D" parent="."]
transform = Transform3D(1, 0, 0, 0, 1, 0, 0, 0, 1, 0, 0.848768, 0)
mesh = SubResource("CapsuleMesh_hh2as")

[node name="CamBase" type="Node3D" parent="."]

[node name="Camera3D" type="Marker3D" parent="CamBase"]
transform = Transform3D(1, 0, 0, 0, 1, 0, 0, 0, 1, 0, 1.5, 0)

[node name="RayCast3D" type="RayCast3D" parent="CamBase/Camera3D"]
transform = Transform3D(1, 0, 0, 0, -4.37114e-08, -1, 0, 1, -4.37114e-08, 0, 0, 0)
visible = false
target_position = Vector3(0, -3, 0)
collision_mask = 2

[node name="Camera3D" type="Camera3D" parent="CamBase/Camera3D"]
fov = 60.0

[node name="Control" type="Control" parent="."]
layout_mode = 3
anchors_preset = 15
anchor_right = 1.0
anchor_bottom = 1.0
offset_top = 1.0
offset_bottom = 1.0
grow_horizontal = 2
grow_vertical = 2

[node name="Crosshair" type="Panel" parent="Control"]
layout_mode = 1
anchors_preset = 8
anchor_left = 0.5
anchor_top = 0.5
anchor_right = 0.5
anchor_bottom = 0.5
offset_left = -1.0
offset_top = -1.0
offset_right = 1.0
offset_bottom = 1.0
grow_horizontal = 2
grow_vertical = 2
theme_override_styles/panel = SubResource("StyleBoxFlat_gwtlw")

[node name="CrosshairTooltip" type="Label" parent="Control"]
layout_mode = 1
anchors_preset = 8
anchor_left = 0.5
anchor_top = 0.5
anchor_right = 0.5
anchor_bottom = 0.5
offset_left = -128.0
offset_top = 11.0
offset_right = 128.0
offset_bottom = 43.0
grow_horizontal = 2
grow_vertical = 2
text = "Dawg"
horizontal_alignment = 1
